reprodev - All flavors markdown
…
Tables

Use https://www.tablesgenerator.com/markdown_tables if you need to make a table from scratch.

Otherwise, use tibbles:

mice::boys |> 
  tibble::as_tibble()

# A tibble: 748 × 9
     age   hgt   wgt   bmi    hc gen   phb      tv reg  
   <dbl> <dbl> <dbl> <dbl> <dbl> <ord> <ord> <int> <fct>
 1 0.035  50.1  3.65  14.5  33.7 <NA>  <NA>     NA south
 2 0.038  53.5  3.37  11.8  35   <NA>  <NA>     NA south
 3 0.057  50    3.14  12.6  35.2 <NA>  <NA>     NA south
 4 0.06   54.5  4.27  14.4  36.7 <NA>  <NA>     NA south
 5 0.062  57.5  5.03  15.2  37.3 <NA>  <NA>     NA south
 6 0.068  55.5  4.66  15.1  37   <NA>  <NA>     NA south
 7 0.068  52.5  3.81  13.8  34.9 <NA>  <NA>     NA south
 8 0.071  53    3.89  13.8  35.8 <NA>  <NA>     NA west 
 9 0.071  55.1  3.88  12.8  36.8 <NA>  <NA>     NA west 
10 0.073  54.5  4.2   14.1  38   <NA>  <NA>     NA east 
# ℹ 738 more rows
…
